<?xml version="1.0" encoding="utf-8"?>
<!DOCTYPE svg PUBLIC "-//W3C//DTD SVG 1.1//EN" "http://www.w3.org/Graphics/SVG/1.1/DTD/svg11.dtd">
<svg version="1.1" id="图形" xmlns="http://www.w3.org/2000/svg" xmlns:xlink="http://www.w3.org/1999/xlink" x="0px" y="0px" width="1024px" height="1024px" viewBox="0 0 1024 1024" enable-background="new 0 0 1024 1024" xml:space="preserve">
  <path fill="#272636" d="M368.896-212l-70.784 0.448-75.648 10.496L168.96-181.952l-28.384 22.368-8.384 13.12L126.72-128.704c-0.352 1.312-0.512 2.688-0.512 4.032l0 3.648c0 1.312 0.16 2.624 0.48 3.872l0.544 4.416c0 1.088 0.096 2.176 0.352 3.264l1.024 15.04c0.128 1.472 0.48 2.88 0.992 4.256l7.136 17.408c0.672 1.376 1.568 2.656 2.624 3.776 0.288 0.416 2.976 3.84 3.296 4.256l4.672 5.76c0.736 0.864 1.536 1.696 2.464 2.4l10.4 7.552c1.536 1.248 3.296 2.176 5.184 2.816l27.52 10.624-16.256 15.072-29.952 37.952-14.272 25.248c-0.672 0.992-1.216 2.08-1.664 3.232l-8.576 20.896-31.232-33.984-15.168-10.016-18.784-6.4-10.016-1.12C46.528 15.232 44.256 15.2 43.776 15.2c-2.016 0-4.032 0.384-5.952 1.152-3.776 1.504-8.48 5.024-10.272 8.736-1.696 1.696-3.264 3.552-3.904 5.152l-8.832 23.872-4.704 37.92 0.896 36.256 11.488 54.176 12.288 34.144 26.656 48.576 32.992 42.624 52.672 48.672-1.664 7.072c-0.32 1.28-0.48 2.624-0.48 3.936l0 16.928c0 1.408 0.192 2.784 0.544 4.128l9.856 31.04 9.216 17.28 1.6 15.104 10.976 31.936 3.904 5.984L181.056 505.056l7.136 42.048L203.328 592.48l19.968 41.44 39.52 56.384 31.552 33.92 32.928 28.448 33.824 20.8 66.336 24.832 73.504 12.704L563.232 812l47.104-5.408 61.312-14.88 44.224-17.504 27.808-14.816 33.856-23.072 30.272-27.936 23.904-28.832 24.288-41.44 28.16-79.168 7.808-33.12 6.592-44.224 21.28-39.328 9.632-42.08 0.128-7.072-0.928-7.36 0.192-3.84c0-1.312-0.16-2.624-0.48-3.872l-4.128-17.376c-0.32-1.312-0.768-2.592-1.408-3.776l-2.272-4.416 56.352-95.904 23.232-56.128 9.12-38.752 4.672-59.232-5.568-37.024-14.528-34.976-14.88-16.384c-1.184-1.024-2.528-1.888-3.968-2.528l-6.432-3.008c-0.64-0.288-3.936-1.44-4.576-1.664-1.664-0.576-3.36-0.832-5.12-0.832l-4.096 0c-1.792 0-3.52 0.288-5.216 0.864-0.64 0.224-3.872 1.376-4.48 1.664l-5.024 2.464c-0.736 0.384-3.776 2.432-4.448 2.912-0.448 0.32-3.552 2.656-3.968 3.008l-10.784 10.944-18.176 27.168-12-29.952-39.168-57.696 36.32-19.328 25.312-19.616c0.928-0.704 1.792-1.568 2.56-2.464l11.072-15.872 6.784-23.52c0.416-2.24 0.32-4.576-0.256-6.752l-0.384-2.752c0-1.088-0.128-2.208-0.352-3.296l-0.736-3.552c-0.352-1.696-0.96-3.296-1.856-4.768l-0.96-1.664c-0.48-1.408-1.024-3.008-1.376-3.648l-18.88-24.032-17.952-11.936-40.064-16.256-49.6-10.176-71.424-2.368-77.888 8.288-47.584 11.456-55.616 17.216-33.344 1.472-43.104-23.552-47.232-16.096-43.264-5.632L369.536-212C369.312-212 369.12-212 368.896-212zM158.24-122.816l8.672-18.112 10.88-9.088 32-14.496 66.112-12.672 24.128-2.464L368.576-180l37.12 2.912 30.496 7.264 59.936 29.12 3.808 3.776c3.392 3.072 7.968 4.512 12.448 4l30.624-2.752 11.392 0.032c1.088 0 2.176-0.128 3.264-0.352l40.32-12.704 30.016-9.6 87.968-13.472 14.72-0.864 67.328 2.208 53.536 12 31.328 14.848 12.352 12.544 3.456 4.736c0.544 1.664 1.312 3.84 1.824 4.672l0.448 2.08c0 1.344 0.192 2.72 0.512 4l0.032 0.032-5.408 14.912-6.88 7.168-18.784 14.752-19.36 10.912-30.816 15.488c-1.184 0.704-2.272 1.568-3.264 2.528-6.144 6.304-8.704 19.136-2.432 25.312l19.968 21.248 27.744 42.752 17.76 46.304c0.384 1.024 0.832 2.016 1.44 2.976l3.008 5.472c1.152 2.496 2.976 4.672 5.216 6.304l2.624 1.888c4.864 3.456 12.672 3.936 17.984 1.024 2.816-1.536 5.856-4.256 7.328-7.136l35.552-55.712 3.808-2.112 5.632 4.128 11.072 19.072 5.664 22.08 2.816 20.928-1.888 34.176-10.592 51.776-28.416 66.112-24.288 44.768-26.08 37.856c-0.288 0.448-1.568 2.976-1.824 3.424-1.088 2.208-1.696 4.672-1.696 7.168 0 1.728 0.288 5.056 0.832 6.688l9.568 38.656-3.456 19.52-7.392 22.912-17.312 29.6c-1.056 1.632-1.824 3.456-2.208 5.376-0.064 0.32-0.704 3.424-0.736 3.776l-8.96 57.888-21.984 70.464-30.112 56.384-56.8 56.32-33.792 21.216-39.52 17.6-41.536 12.064-72.672 11.52-57.184-0.96-68.032-11.712-37.504-12.288L355.52 733.248l-26.176-20.288L287.456 669.888 250.56 617.248 223.104 553.92 212.736 502.464l0.224-18.624c0-4.032-1.536-7.968-4.288-10.912L201.6 461.44l-5.216-26.272 0.096-4.32c0-3.296-1.024-6.496-2.912-9.216L184.512 406.56l-7.584-27.712 0.576-11.52 3.04-12.256c2.112-6.496-0.128-13.6-5.6-17.728l-47.84-41.6-23.936-26.656L74.56 225.472l-21.344-52.032-10.4-48.448L42.08 108.32l0.8-29.632 8.16-30.944 10.432 3.488 23.68 20.32 19.808 30.464c0.32 1.92 1.248 4.864 2.24 6.528 1.504 2.528 4.896 6.656 7.52 8.032 0.096 0.064 2.848 1.44 2.944 1.504 4.768 2.304 10.624 2.048 15.488-0.384 0.48-0.192 0.928-0.384 1.344-0.608 4.16-2.144 8.096-6.496 9.152-11.104l9.28-30.048 29.216-53.984 40.16-40.384 12.288-9.664c2.432-1.152 4.544-2.88 6.112-5.056 1.984-2.72 4.576-8.096 4.576-11.456 0-4.672-2.016-10.016-5.536-13.056-1.792-1.568-4.288-3.04-6.816-3.904l0-0.064c-1.312-0.448-4.832-1.472-6.208-1.568l-39.872-8.448-3.328-2.016c-1.056-0.64-2.144-1.12-3.328-1.504l-3.264-1.472-5.536-3.52-4-4.928c-0.224-0.256-2.208-3.168-2.464-3.392L160-101.92l0.064-4.224c0-1.088-0.096-4.672-0.352-5.76l-0.512-5.024c0-1.312-0.16-2.624-0.48-3.872L158.24-122.816z" transform="translate(0, 812) scale(1, -1)"/>
</svg>
